module godb

go 1.18

require (
	github.com/jackc/pgx/v4 v4.17.2
	github.com/json-iterator/go v1.1.12
	github.com/segmentio/ksuid v1.0.4
	github.com/sirupsen/logrus v1.9.0
	github.com/valyala/fasthttp v1.41.0
)

require (
	github.com/andybalholm/brotli v1.0.4 // indirect
	github.com/jackc/chunkreader/v2 v2.0.1 // indirect
	github.com/jackc/pgconn v1.13.0 // indirect
	github.com/jackc/pgio v1.0.0 // indirect
	github.com/jackc/pgpassfile v1.0.0 // indirect
	github.com/jackc/pgproto3/v2 v2.3.1 // indirect
	github.com/jackc/pgservicefile v0.0.0-20200714003250-2b9c44734f2b // indirect
	github.com/jackc/pgtype v1.12.0 // indirect
	github.com/jackc/puddle v1.3.0 // indirect
	github.com/klauspost/compress v1.15.12 // indirect
	github.com/modern-go/concurrent v0.0.0-20180306012644-bacd9c7ef1dd // indirect
	github.com/modern-go/reflect2 v1.0.2 // indirect
	github.com/valyala/bytebufferpool v1.0.0 // indirect
	golang.org/x/crypto v0.0.0-20220722155217-630584e8d5aa // indirect
	golang.org/x/sys v0.2.0 // indirect
	golang.org/x/text v0.3.7 // indirect
)
